<?xml version="1.0" encoding="utf-8"?>
<!-- Generator: Adobe Illustrator 16.0.0, SVG Export Plug-In . SVG Version: 6.00 Build 0)  -->
<!DOCTYPE svg PUBLIC "-//W3C//DTD SVG 1.1//EN" "http://www.w3.org/Graphics/SVG/1.1/DTD/svg11.dtd">
<svg version="1.1" id="Warstwa_1" xmlns="http://www.w3.org/2000/svg" xmlns:xlink="http://www.w3.org/1999/xlink" x="0px" y="0px"
	 width="150px" height="72px" viewBox="0 0 150 72" enable-background="new 0 0 150 72" xml:space="preserve">
<path fill="#9D9D9C" d="M33.306,21.047l-12.258,12.26v-12.26H33.306z M116.691,50.396l12.531-12.536V21.047H75.67v29.349H116.691z"
	/>
<path fill="#FFFFFF" d="M82.223,36.848l2.951-5.332h-2.061l-1.922,3.469l-1.922-3.469h-2.062l2.952,5.332l0.098,0.176v3.304h1.855
	v-3.304h0.012L82.223,36.848z M90.188,31.513H88.18l-3.707,8.816h1.992l0.789-1.869h3.859l0.782,1.869h1.991L90.188,31.513z
	 M87.958,36.775l1.226-2.903l1.219,2.903H87.958z M100.159,37.066c0.383-0.123,0.704-0.307,0.973-0.544
	c0.544-0.505,0.82-1.233,0.82-2.198c0-0.912-0.276-1.608-0.82-2.083c-0.551-0.482-1.348-0.72-2.405-0.72h-3.859v8.808h1.93v-3.048
	c0.359-0.008,0.773-0.008,1.233-0.008l2.159,3.056h2.283L100.159,37.066z M99.615,35.389c-0.268,0.23-0.674,0.345-1.209,0.345
	h-1.609v-2.673h1.609c0.535,0,0.941,0.107,1.209,0.321c0.275,0.215,0.406,0.529,0.406,0.958
	C100.021,34.807,99.891,35.151,99.615,35.389z M110.668,32.869c-0.666-0.697-1.493-1.355-2.773-1.355h-3.875v8.816h2.973v-0.008
	h0.742c1.332,0,2.344-0.521,3.033-1.294c0.689-0.766,1.026-1.754,1.026-3.232C111.794,34.447,111.327,33.566,110.668,32.869z
	 M109.268,37.955c-0.392,0.498-0.981,0.742-1.771,0.742h-1.623v-5.392h1.777c0.742,0,1.293,0.229,1.662,0.674
	c0.359,0.452,0.682,0.988,0.682,1.884C109.994,36.852,109.665,37.457,109.268,37.955z"/>
<path fill="#575756" d="M37.371,35.759h0.232v2.86c-0.349,0.434-0.777,0.8-1.261,1.084c-0.676,0.395-1.46,0.625-2.299,0.625
	c-2.523,0-4.569-2.047-4.569-4.569c0-2.523,2.046-4.569,4.569-4.569c1.267,0,2.413,0.516,3.24,1.349l-0.054-0.038l-1,1.437
	c-0.502-0.565-1.233-0.924-2.05-0.924c-1.516,0-2.744,1.229-2.744,2.744s1.229,2.744,2.744,2.744c0.542,0,1.041-0.162,1.466-0.434
	v-2.31H37.371z M44.612,37.064l2.31,3.262h-2.28l-2.165-3.057c-0.455,0.001-0.868,0.006-1.232,0.014v3.043h-0.96h-0.967v-8.802h0.96
	h2.901c1.051,0,1.851,0.238,2.399,0.714c0.548,0.477,0.823,1.171,0.823,2.083c0,0.964-0.274,1.698-0.823,2.2
	C45.315,36.761,44.991,36.939,44.612,37.064z M44.473,34.339c0-0.426-0.135-0.745-0.405-0.958c-0.271-0.213-0.675-0.319-1.215-0.319
	h-1.608v2.671h1.608c0.541,0,0.945-0.116,1.215-0.347C44.338,35.155,44.473,34.806,44.473,34.339z M48.455,31.516v1.654v1.997v1.654
	v1.853v1.652h1.957h4.539v-1.652h-4.539v-1.853h3.934v-1.654h-3.934V33.17h4.539v-1.654h-4.539H48.455L48.455,31.516z
	 M56.623,31.516v1.654v1.997v1.654v1.853v1.652h1.957h4.538v-1.652H58.58v-1.853h3.933v-1.654H58.58V33.17h4.538v-1.654H58.58
	H56.623L56.623,31.516z M70.98,31.516v5.497l-4.211-5.497h-1.855v8.81h1.855v-5.496l4.211,5.496h1.856v-8.81H70.98z"/>
<path fill="#878787" d="M140.271,27.354V26.81l-10.664,10.667v-16.43h10.664v-0.383h-10.664V10h-0.383v10.664H75.67V10h-0.382
	v10.664h-54.24V10h-0.383v10.664H10v0.383h10.665v29.349H10v0.383h10.665V62h0.383V50.779h54.24V62h0.382V50.779h40.639
	l-11.217,11.219h0.536l11.218-11.219h12.377V62h0.383V50.779h10.664v-0.383h-10.664V38.019L140.271,27.354z M21.048,50.396V21.047
	h54.24v29.349H21.048z M75.67,50.396V21.047h53.555V37.86l-12.533,12.536H75.67z M129.225,50.396H117.23l11.994-11.995V50.396z"/>
</svg>
