<?xml version="1.0" encoding="utf-8"?>
<!-- Generator: Adobe Illustrator 16.0.0, SVG Export Plug-In . SVG Version: 6.00 Build 0)  -->
<!DOCTYPE svg PUBLIC "-//W3C//DTD SVG 1.1//EN" "http://www.w3.org/Graphics/SVG/1.1/DTD/svg11.dtd">
<svg version="1.1" id="Warstwa_1" xmlns="http://www.w3.org/2000/svg" xmlns:xlink="http://www.w3.org/1999/xlink" x="0px" y="0px"
	 width="150px" height="72px" viewBox="0 0 150 72" enable-background="new 0 0 150 72" xml:space="preserve">
<path fill="#FFFFFF" d="M21.05,21.05v12.26l12.26-12.26H21.05z M109.31,33.98c-0.369-0.45-0.92-0.67-1.659-0.67h-1.78v5.39h1.63
	c0.79,0,1.38-0.25,1.77-0.74c0.4-0.5,0.721-1.11,0.73-2.1C110,34.97,109.67,34.43,109.31,33.98z M109.31,33.98
	c-0.369-0.45-0.92-0.67-1.659-0.67h-1.78v5.39h1.63c0.79,0,1.38-0.25,1.77-0.74c0.4-0.5,0.721-1.11,0.73-2.1
	C110,34.97,109.67,34.43,109.31,33.98z M89.18,33.87l-1.22,2.91h2.44L89.18,33.87z M99.62,33.38c-0.271-0.21-0.68-0.32-1.21-0.32
	H96.8v2.67h1.61c0.53,0,0.939-0.11,1.21-0.34c0.27-0.24,0.399-0.58,0.399-1.05C100.02,33.91,99.89,33.6,99.62,33.38z M109.31,33.98
	c-0.369-0.45-0.92-0.67-1.659-0.67h-1.78v5.39h1.63c0.79,0,1.38-0.25,1.77-0.74c0.4-0.5,0.721-1.11,0.73-2.1
	C110,34.97,109.67,34.43,109.31,33.98z M109.31,33.98c-0.369-0.45-0.92-0.67-1.659-0.67h-1.78v5.39h1.63c0.79,0,1.38-0.25,1.77-0.74
	c0.4-0.5,0.721-1.11,0.73-2.1C110,34.97,109.67,34.43,109.31,33.98z M99.62,33.38c-0.271-0.21-0.68-0.32-1.21-0.32H96.8v2.67h1.61
	c0.53,0,0.939-0.11,1.21-0.34c0.27-0.24,0.399-0.58,0.399-1.05C100.02,33.91,99.89,33.6,99.62,33.38z M89.18,33.87l-1.22,2.91h2.44
	L89.18,33.87z M75.67,21.05V50.4h41.021l12.529-12.54V21.05H75.67z M82.12,37.02h-0.01v3.311H80.26V37.02l-0.1-0.17l-2.95-5.33h2.06
	l1.921,3.46l1.92-3.46h2.06l-2.95,5.33L82.12,37.02z M91.89,40.33l-0.779-1.87h-3.86l-0.79,1.87h-1.99l3.71-8.82h2.011l3.699,8.82
	H91.89z M100.19,40.33l-2.16-3.061c-0.46,0-0.87,0-1.23,0.011v3.05h-1.93v-8.81h3.86c1.05,0,1.85,0.24,2.399,0.72
	c0.55,0.48,0.82,1.17,0.82,2.08c0,0.97-0.271,1.7-0.82,2.2c-0.27,0.24-0.59,0.421-0.97,0.551l2.31,3.26H100.19z M110.77,39.03
	c-0.689,0.77-1.699,1.29-3.039,1.29h-0.74v0.01h-2.971v-8.82h3.87c1.28,0,2.11,0.66,2.78,1.36c0.66,0.7,1.12,1.58,1.12,2.93
	C111.79,37.27,111.46,38.26,110.77,39.03z M107.65,33.31h-1.78v5.39h1.63c0.79,0,1.38-0.25,1.77-0.74c0.4-0.5,0.721-1.11,0.73-2.1
	c0-0.89-0.33-1.43-0.69-1.88C108.94,33.53,108.39,33.31,107.65,33.31z M98.41,33.06H96.8v2.67h1.61c0.53,0,0.939-0.11,1.21-0.34
	c0.27-0.24,0.399-0.58,0.399-1.05c0-0.43-0.13-0.74-0.399-0.96C99.35,33.17,98.94,33.06,98.41,33.06z M87.96,36.78h2.44l-1.221-2.91
	L87.96,36.78z M99.62,33.38c-0.271-0.21-0.68-0.32-1.21-0.32H96.8v2.67h1.61c0.53,0,0.939-0.11,1.21-0.34
	c0.27-0.24,0.399-0.58,0.399-1.05C100.02,33.91,99.89,33.6,99.62,33.38z M109.31,33.98c-0.369-0.45-0.92-0.67-1.659-0.67h-1.78v5.39
	h1.63c0.79,0,1.38-0.25,1.77-0.74c0.4-0.5,0.721-1.11,0.73-2.1C110,34.97,109.67,34.43,109.31,33.98z M109.31,33.98
	c-0.369-0.45-0.92-0.67-1.659-0.67h-1.78v5.39h1.63c0.79,0,1.38-0.25,1.77-0.74c0.4-0.5,0.721-1.11,0.73-2.1
	C110,34.97,109.67,34.43,109.31,33.98z M99.62,33.38c-0.271-0.21-0.68-0.32-1.21-0.32H96.8v2.67h1.61c0.53,0,0.939-0.11,1.21-0.34
	c0.27-0.24,0.399-0.58,0.399-1.05C100.02,33.91,99.89,33.6,99.62,33.38z"/>
<path fill="#FFFFFF" d="M37.371,35.759h0.232v2.86c-0.349,0.434-0.777,0.8-1.261,1.084c-0.676,0.395-1.46,0.625-2.299,0.625
	c-2.523,0-4.569-2.047-4.569-4.569c0-2.523,2.046-4.569,4.569-4.569c1.267,0,2.413,0.516,3.24,1.349l-0.054-0.038l-1,1.437
	c-0.502-0.565-1.233-0.924-2.05-0.924c-1.516,0-2.744,1.229-2.744,2.744c0,1.516,1.229,2.744,2.744,2.744
	c0.542,0,1.041-0.162,1.466-0.434v-2.311L37.371,35.759L37.371,35.759z M44.612,37.064l2.31,3.262h-2.28l-2.165-3.057
	c-0.455,0-0.868,0.006-1.232,0.014v3.043h-0.96h-0.967v-8.802h0.96h2.901c1.051,0,1.851,0.238,2.399,0.714
	c0.548,0.477,0.823,1.171,0.823,2.083c0,0.964-0.274,1.698-0.823,2.201C45.315,36.761,44.991,36.939,44.612,37.064z M44.473,34.339
	c0-0.426-0.135-0.745-0.405-0.958c-0.271-0.213-0.675-0.319-1.215-0.319h-1.608v2.671h1.608c0.541,0,0.945-0.116,1.215-0.347
	C44.338,35.155,44.473,34.806,44.473,34.339z M48.455,31.516v1.654v1.997v1.653v1.854v1.652h1.957h4.539v-1.652h-4.539V36.82h3.934
	v-1.653h-3.934V33.17h4.539v-1.654h-4.539H48.455L48.455,31.516z M56.623,31.516v1.654v1.997v1.653v1.854v1.652h1.957h4.538v-1.652
	H58.58V36.82h3.933v-1.653H58.58V33.17h4.538v-1.654H58.58H56.623L56.623,31.516z M70.98,31.516v5.498l-4.211-5.498h-1.855v8.81
	h1.855V34.83l4.211,5.496h1.856v-8.81H70.98z"/>
<path fill="#FFFFFF" d="M140.271,27.354V26.81l-10.664,10.667v-16.43h10.664v-0.383h-10.664V10h-0.383v10.664H75.67V10h-0.382
	v10.664h-54.24V10h-0.383v10.664H10v0.383h10.665v29.35H10v0.383h10.665V62h0.383V50.779h54.24V62h0.382V50.779h40.639
	l-11.217,11.219h0.536l11.218-11.219h12.377V62h0.383V50.779h10.664v-0.383h-10.664V38.02L140.271,27.354z M21.048,50.396v-29.35
	h54.24v29.35H21.048z M75.67,50.396v-29.35h53.555v16.813l-12.533,12.537H75.67z M129.225,50.396H117.23L129.225,38.4V50.396
	L129.225,50.396z"/>
</svg>
