<svg width="150" height="72" viewBox="0 0 150 72" fill="none" xmlns="http://www.w3.org/2000/svg">
<path d="M33.3062 21.0472L21.048 33.3077V21.0472H33.3062ZM116.691 50.3959L129.223 37.8604V21.0472H75.6706V50.3959H116.691Z" fill="#88BB50"/>
<path d="M82.2225 36.8472L85.1745 31.5162H83.1126L81.1916 34.9852L79.2698 31.5162H77.2079L80.1598 36.8472L80.2579 37.0241V40.3269H82.1138V37.0241H82.1245L82.2225 36.8472ZM90.1868 31.5131H88.18L84.4729 40.3291H86.4643L87.2533 38.4602H91.1136L91.8956 40.3291H93.8871L90.1868 31.5131ZM87.9579 36.7752L89.1842 33.8722L90.4021 36.7752H87.9579ZM100.159 37.0662C100.542 36.9437 100.864 36.7598 101.132 36.5224C101.676 36.0169 101.952 35.2892 101.952 34.3241C101.952 33.4127 101.676 32.7157 101.132 32.2408C100.581 31.7582 99.7841 31.5208 98.7271 31.5208H94.8667V40.3291H96.7969V37.2807C97.1569 37.273 97.5705 37.273 98.0301 37.273L100.189 40.3291H102.472L100.159 37.0662ZM99.6156 35.3888C99.3475 35.6186 98.9416 35.7335 98.4062 35.7335H96.7969V33.0603H98.4062C98.9416 33.0603 99.3475 33.1676 99.6156 33.382C99.8913 33.5965 100.022 33.9105 100.022 34.3395C100.022 34.8067 99.8913 35.1514 99.6156 35.3888ZM110.668 32.8688C110.002 32.1718 109.175 31.5131 107.895 31.5131H104.019V40.3291H106.992V40.3215H107.735C109.067 40.3215 110.078 39.8006 110.768 39.027C111.457 38.2611 111.794 37.273 111.794 35.7948C111.794 34.4467 111.327 33.5659 110.668 32.8688ZM109.267 37.9547C108.876 38.4526 108.286 38.6977 107.496 38.6977H105.873V33.3054H107.65C108.393 33.3054 108.944 33.5352 109.312 33.9795C109.672 34.4314 109.994 34.9675 109.994 35.8637C109.994 36.8518 109.665 37.4569 109.267 37.9547Z" fill="white"/>
<path d="M37.3704 35.7587H37.6025V38.6188C37.2532 39.0531 36.8258 39.4192 36.3417 39.7026C35.6661 40.0971 34.8818 40.3276 34.0431 40.3276C31.5201 40.3276 29.4742 38.2818 29.4742 35.7587C29.4742 33.2357 31.5201 31.1899 34.0431 31.1899C35.31 31.1899 36.4558 31.7061 37.2831 32.5387L37.2294 32.5012L36.2299 33.9373C35.7274 33.3721 34.9967 33.0136 34.1802 33.0136C32.6644 33.0136 31.4358 34.2422 31.4358 35.758C31.4358 37.2738 32.6644 38.5024 34.1802 38.5024C34.7217 38.5024 35.2211 38.3392 35.6462 38.0688V35.7587H37.3704ZM44.6116 37.0647L46.9217 40.3268H44.6423L42.4777 37.27C42.0227 37.2707 41.6099 37.2753 41.2453 37.283V40.3268H40.2848H39.3174V31.5238H40.2779H43.1793C44.2302 31.5238 45.0298 31.762 45.5782 32.2385C46.1267 32.7149 46.4009 33.4096 46.4009 34.3218C46.4009 35.2862 46.1267 36.0199 45.5782 36.5209C45.3148 36.7606 44.9908 36.9398 44.6116 37.0647ZM44.473 34.3394C44.473 33.9136 44.3382 33.5942 44.0678 33.382C43.7974 33.1691 43.393 33.0626 42.853 33.0626H41.2453V35.7335H42.853C43.3938 35.7335 43.7982 35.6178 44.0678 35.3865C44.3382 35.1552 44.473 34.8059 44.473 34.3394ZM48.4544 31.5162V33.1706V35.1674V36.8211V38.6732V40.3268H50.4113H54.9496V38.6732H50.4113V36.8211H54.3445V35.1674H50.4113V33.1706H54.9496V31.5162H50.4113H48.4544V31.5162ZM56.6232 31.5162V33.1706V35.1674V36.8211V38.6732V40.3268H58.5801H63.1184V38.6732H58.5801V36.8211H62.5133V35.1674H58.5801V33.1706H63.1184V31.5162H58.5801H56.6232V31.5162ZM70.98 31.5162V37.0126L66.7689 31.5162H64.9137V40.3268H66.7689V34.8304L70.98 40.3268H72.8359V31.5162H70.98Z" fill="black"/>
<path d="M140.272 27.354V26.8102L129.607 37.4775V21.0472H140.271V20.6643H129.607V10H129.224V20.6643H75.6706V10H75.2876V20.6643H21.048V10H20.665V20.6643H10V21.0472H20.665V50.3959H10V50.7789H20.665V62H21.048V50.7789H75.2876V62H75.6706V50.7789H116.309L105.092 61.9977H105.628L116.846 50.7797H129.223V62H129.606V50.7789H140.27V50.3959H129.606V38.0183L140.272 27.354ZM21.048 50.3959V21.0472H75.2876V50.3959H21.048ZM75.6706 50.3959V21.0472H129.224V37.8605L116.691 50.3959H75.6706ZM129.224 50.3959H117.23L129.224 38.4012V50.3959Z" fill="#D1D3D4"/>
</svg>
